[{
  "id": 1,
  "fecha": "7/17/2018",
  "importe": 93,
  "latitud": 34.050751,
  "longitu": -118.3841777
}, {
  "id": 2,
  "fecha": "5/6/2019",
  "importe": 96,
  "latitud": 48.5428567,
  "longitu": 22.9948916
}, {
  "id": 3,
  "fecha": "7/30/2018",
  "importe": 48,
  "latitud": 59.3497176,
  "longitu": 18.0962527
}, {
  "id": 4,
  "fecha": "9/24/2018",
  "importe": 52,
  "latitud": 30.606033,
  "longitu": 118.297302
}, {
  "id": 5,
  "fecha": "9/20/2018",
  "importe": 39,
  "latitud": 34.5521789,
  "longitu": 136.5175749
}, {
  "id": 6,
  "fecha": "5/19/2019",
  "importe": 13,
  "latitud": 38.789257,
  "longitu": -27.327988
}, {
  "id": 7,
  "fecha": "3/16/2019",
  "importe": 7,
  "latitud": 26.1256441,
  "longitu": 50.4980362
}, {
  "id": 8,
  "fecha": "10/20/2018",
  "importe": 72,
  "latitud": 40.2861415,
  "longitu": 23.390846
}, {
  "id": 9,
  "fecha": "7/11/2019",
  "importe": 65,
  "latitud": 47.0203676,
  "longitu": -68.1435063
}, {
  "id": 10,
  "fecha": "6/4/2019",
  "importe": 36,
  "latitud": 6.9894573,
  "longitu": 81.057569
}, {
  "id": 11,
  "fecha": "2/7/2019",
  "importe": 5,
  "latitud": "-8.8341",
  "longitu": "120.9593"
}, {
  "id": 12,
  "fecha": "10/2/2018",
  "importe": 20,
  "latitud": 52.3468215,
  "longitu": 21.2540462
}, {
  "id": 13,
  "fecha": "7/24/2018",
  "importe": 18,
  "latitud": 40.5235837,
  "longitu": 19.8075358
}, {
  "id": 14,
  "fecha": "12/1/2018",
  "importe": 75,
  "latitud": 52.0379571,
  "longitu": 43.2923971
}, {
  "id": 15,
  "fecha": "4/14/2019",
  "importe": 9,
  "latitud": 32.9578909,
  "longitu": -102.8518139
}, {
  "id": 16,
  "fecha": "12/19/2018",
  "importe": 56,
  "latitud": 6.0825,
  "longitu": 124.4327774
}, {
  "id": 17,
  "fecha": "4/4/2019",
  "importe": 35,
  "latitud": 59.3528754,
  "longitu": 24.0551606
}, {
  "id": 18,
  "fecha": "5/3/2019",
  "importe": 70,
  "latitud": -34.6893836,
  "longitu": -58.5801516
}, {
  "id": 19,
  "fecha": "10/5/2018",
  "importe": 98,
  "latitud": 10.1592286,
  "longitu": -69.0087365
}, {
  "id": 20,
  "fecha": "5/29/2019",
  "importe": 9,
  "latitud": -19.0553711,
  "longitu": -169.9178709
}, {
  "id": 21,
  "fecha": "3/4/2019",
  "importe": 4,
  "latitud": 41.2479207,
  "longitu": -8.3626963
}, {
  "id": 22,
  "fecha": "2/15/2019",
  "importe": 21,
  "latitud": 62.2956257,
  "longitu": 28.2513674
}, {
  "id": 23,
  "fecha": "11/23/2018",
  "importe": 62,
  "latitud": 6.4503024,
  "longitu": 2.3468195
}, {
  "id": 24,
  "fecha": "3/18/2019",
  "importe": 58,
  "latitud": -29.6509722,
  "longitu": -50.7757844
}, {
  "id": 25,
  "fecha": "9/26/2018",
  "importe": 82,
  "latitud": 8.4362867,
  "longitu": -69.9959762
}, {
  "id": 26,
  "fecha": "9/17/2018",
  "importe": 13,
  "latitud": 37.189822,
  "longitu": 112.176206
}, {
  "id": 27,
  "fecha": "5/18/2019",
  "importe": 65,
  "latitud": -3.411598,
  "longitu": 114.8452
}, {
  "id": 28,
  "fecha": "10/27/2018",
  "importe": 80,
  "latitud": -8.1779898,
  "longitu": 112.3278161
}, {
  "id": 29,
  "fecha": "4/23/2019",
  "importe": 23,
  "latitud": 44.0300904,
  "longitu": 43.1270513
}, {
  "id": 30,
  "fecha": "5/31/2019",
  "importe": 24,
  "latitud": -14.8258317,
  "longitu": -64.9000247
}, {
  "id": 31,
  "fecha": "2/28/2019",
  "importe": 51,
  "latitud": -0.9761111,
  "longitu": 100.6838889
}, {
  "id": 32,
  "fecha": "5/18/2019",
  "importe": 30,
  "latitud": 34.5553494,
  "longitu": 69.207486
}, {
  "id": 33,
  "fecha": "10/18/2018",
  "importe": 10,
  "latitud": 48.7786908,
  "longitu": -123.7079417
}, {
  "id": 34,
  "fecha": "12/23/2018",
  "importe": 30,
  "latitud": 43.8164948,
  "longitu": 4.8090237
}, {
  "id": 35,
  "fecha": "12/11/2018",
  "importe": 25,
  "latitud": -34.3714108,
  "longitu": -58.875663
}, {
  "id": 36,
  "fecha": "8/22/2018",
  "importe": 68,
  "latitud": 1.7131812,
  "longitu": 33.6063855
}, {
  "id": 37,
  "fecha": "3/9/2019",
  "importe": 16,
  "latitud": 49.7517708,
  "longitu": 17.919916
}, {
  "id": 38,
  "fecha": "8/8/2018",
  "importe": 78,
  "latitud": 48.9620719,
  "longitu": 14.4514592
}, {
  "id": 39,
  "fecha": "4/28/2019",
  "importe": 71,
  "latitud": 22.251924,
  "longitu": 112.794065
}, {
  "id": 40,
  "fecha": "8/17/2018",
  "importe": 84,
  "latitud": 3.2443317,
  "longitu": 99.4976356
}, {
  "id": 41,
  "fecha": "8/9/2018",
  "importe": 32,
  "latitud": 46.4354039,
  "longitu": 141.859272
}, {
  "id": 42,
  "fecha": "9/5/2018",
  "importe": 81,
  "latitud": 8.6144269,
  "longitu": -71.6554692
}, {
  "id": 43,
  "fecha": "8/25/2018",
  "importe": 18,
  "latitud": 51.3035449,
  "longitu": 117.8793825
}, {
  "id": 44,
  "fecha": "8/5/2018",
  "importe": 64,
  "latitud": 41.4009304,
  "longitu": -8.335096
}, {
  "id": 45,
  "fecha": "9/1/2018",
  "importe": 6,
  "latitud": 34.7474,
  "longitu": 111.87448
}, {
  "id": 46,
  "fecha": "10/28/2018",
  "importe": 48,
  "latitud": 15.5973118,
  "longitu": -87.2145498
}, {
  "id": 47,
  "fecha": "6/29/2019",
  "importe": 1,
  "latitud": 48.3343908,
  "longitu": 24.8195808
}, {
  "id": 48,
  "fecha": "9/30/2018",
  "importe": 71,
  "latitud": -1.2936976,
  "longitu": -50.5135589
}, {
  "id": 49,
  "fecha": "4/20/2019",
  "importe": 69,
  "latitud": 40.7363895,
  "longitu": -7.8200663
}, {
  "id": 50,
  "fecha": "7/27/2018",
  "importe": 11,
  "latitud": 35.529096,
  "longitu": 112.849999
}, {
  "id": 51,
  "fecha": "12/22/2018",
  "importe": 38,
  "latitud": 24.9372186,
  "longitu": 118.6422409
}, {
  "id": 52,
  "fecha": "9/30/2018",
  "importe": 77,
  "latitud": -8.0663604,
  "longitu": 113.4418908
}, {
  "id": 53,
  "fecha": "8/7/2018",
  "importe": 34,
  "latitud": "35.41",
  "longitu": "127.38583"
}, {
  "id": 54,
  "fecha": "9/3/2018",
  "importe": 59,
  "latitud": 47.4978346,
  "longitu": 7.5961692
}, {
  "id": 55,
  "fecha": "9/1/2018",
  "importe": 91,
  "latitud": -21.6733002,
  "longitu": -49.7471388
}, {
  "id": 56,
  "fecha": "10/5/2018",
  "importe": 86,
  "latitud": 11.8334463,
  "longitu": -86.1662742
}, {
  "id": 57,
  "fecha": "9/19/2018",
  "importe": 15,
  "latitud": 48.4339701,
  "longitu": 0.098598
}, {
  "id": 58,
  "fecha": "3/30/2019",
  "importe": 21,
  "latitud": -6.160726,
  "longitu": 106.915202
}, {
  "id": 59,
  "fecha": "9/19/2018",
  "importe": 17,
  "latitud": "32.97746",
  "longitu": "35.33345"
}, {
  "id": 60,
  "fecha": "4/6/2019",
  "importe": 52,
  "latitud": -7.6263425,
  "longitu": 39.065866
}, {
  "id": 61,
  "fecha": "3/9/2019",
  "importe": 62,
  "latitud": "44.38345",
  "longitu": "-64.31545"
}, {
  "id": 62,
  "fecha": "12/2/2018",
  "importe": 97,
  "latitud": 14.6066438,
  "longitu": 104.705431
}, {
  "id": 63,
  "fecha": "7/25/2018",
  "importe": 92,
  "latitud": "45.8699",
  "longitu": "33.99138"
}, {
  "id": 64,
  "fecha": "1/26/2019",
  "importe": 80,
  "latitud": 45.7479837,
  "longitu": 21.2472912
}, {
  "id": 65,
  "fecha": "12/10/2018",
  "importe": 92,
  "latitud": 56.2716397,
  "longitu": 12.8632487
}, {
  "id": 66,
  "fecha": "2/2/2019",
  "importe": 37,
  "latitud": 7.9819981,
  "longitu": -81.0423429
}, {
  "id": 67,
  "fecha": "12/18/2018",
  "importe": 2,
  "latitud": 7.7478359,
  "longitu": -8.8252502
}, {
  "id": 68,
  "fecha": "7/20/2018",
  "importe": 7,
  "latitud": 23.883531,
  "longitu": 110.666614
}, {
  "id": 69,
  "fecha": "2/24/2019",
  "importe": 88,
  "latitud": 17.4044214,
  "longitu": 106.6379724
}, {
  "id": 70,
  "fecha": "9/23/2018",
  "importe": 31,
  "latitud": 42.4379175,
  "longitu": 24.1808285
}, {
  "id": 71,
  "fecha": "1/14/2019",
  "importe": 96,
  "latitud": -8.6223922,
  "longitu": 122.2164602
}, {
  "id": 72,
  "fecha": "6/16/2019",
  "importe": 67,
  "latitud": 39.9396284,
  "longitu": -75.1866396
}, {
  "id": 73,
  "fecha": "5/25/2019",
  "importe": 17,
  "latitud": 46.3621517,
  "longitu": 14.3083372
}, {
  "id": 74,
  "fecha": "5/13/2019",
  "importe": 9,
  "latitud": 59.0835313,
  "longitu": 17.5698708
}, {
  "id": 75,
  "fecha": "1/18/2019",
  "importe": 45,
  "latitud": 13.1870854,
  "longitu": 123.4572574
}, {
  "id": 76,
  "fecha": "6/8/2019",
  "importe": 48,
  "latitud": 55.4386676,
  "longitu": 12.9793725
}, {
  "id": 77,
  "fecha": "1/12/2019",
  "importe": 98,
  "latitud": 53.8329337,
  "longitu": 23.6524854
}, {
  "id": 78,
  "fecha": "10/25/2018",
  "importe": 76,
  "latitud": -6.7290837,
  "longitu": 111.3694594
}, {
  "id": 79,
  "fecha": "11/7/2018",
  "importe": 93,
  "latitud": 49.7123742,
  "longitu": 17.9032009
}, {
  "id": 80,
  "fecha": "12/23/2018",
  "importe": 20,
  "latitud": 33.5727724,
  "longitu": 36.4093761
}, {
  "id": 81,
  "fecha": "3/17/2019",
  "importe": 56,
  "latitud": 54.2732308,
  "longitu": 32.014211
}, {
  "id": 82,
  "fecha": "1/14/2019",
  "importe": 84,
  "latitud": -7.023104,
  "longitu": 108.2763069
}, {
  "id": 83,
  "fecha": "5/2/2019",
  "importe": 20,
  "latitud": -7.8533911,
  "longitu": 111.2994071
}, {
  "id": 84,
  "fecha": "1/26/2019",
  "importe": 1,
  "latitud": -8.7229245,
  "longitu": 117.8663075
}, {
  "id": 85,
  "fecha": "10/18/2018",
  "importe": 85,
  "latitud": 31.4299792,
  "longitu": 120.096494
}, {
  "id": 86,
  "fecha": "5/6/2019",
  "importe": 84,
  "latitud": 48.1752793,
  "longitu": -1.7274799
}, {
  "id": 87,
  "fecha": "8/14/2018",
  "importe": 75,
  "latitud": 31.220367,
  "longitu": 121.424624
}, {
  "id": 88,
  "fecha": "7/6/2019",
  "importe": 72,
  "latitud": "17.45685",
  "longitu": "121.74607"
}, {
  "id": 89,
  "fecha": "4/2/2019",
  "importe": 25,
  "latitud": 43.1905743,
  "longitu": 3.0057099
}, {
  "id": 90,
  "fecha": "12/1/2018",
  "importe": 99,
  "latitud": -6.5301408,
  "longitu": -76.7206652
}, {
  "id": 91,
  "fecha": "8/23/2018",
  "importe": 11,
  "latitud": 4.243113,
  "longitu": 117.893335
}, {
  "id": 92,
  "fecha": "10/24/2018",
  "importe": 79,
  "latitud": 49.1218508,
  "longitu": 14.0789281
}, {
  "id": 93,
  "fecha": "11/21/2018",
  "importe": 8,
  "latitud": 26.393274,
  "longitu": 118.502373
}, {
  "id": 94,
  "fecha": "6/4/2019",
  "importe": 79,
  "latitud": 27.5632781,
  "longitu": 68.2167517
}, {
  "id": 95,
  "fecha": "1/22/2019",
  "importe": 59,
  "latitud": 35.2617507,
  "longitu": 57.973082
}, {
  "id": 96,
  "fecha": "2/19/2019",
  "importe": 56,
  "latitud": -7.7480174,
  "longitu": -37.6346628
}, {
  "id": 97,
  "fecha": "7/21/2018",
  "importe": 67,
  "latitud": 11.5000501,
  "longitu": 123.0503762
}, {
  "id": 98,
  "fecha": "7/19/2018",
  "importe": 76,
  "latitud": 52.8517028,
  "longitu": 16.5231662
}, {
  "id": 99,
  "fecha": "7/28/2018",
  "importe": 77,
  "latitud": -17.4738864,
  "longitu": 24.2955141
}, {
  "id": 100,
  "fecha": "4/5/2019",
  "importe": 9,
  "latitud": 7.8715342,
  "longitu": 5.0728823
}]
